{
  "projects": [
    {
      "name": "Project 1",
      "options": {
        "execution_time": true,
        "memory": null,
        "cpu": null
      },
      "link": "https://firebasestorage.googleapis.com/v0/b/artemis-4f4b9.appspot.com/o/1539893579787_07-ngrx-recipes-finished.zip?alt=media&token=5d6cf9bb-f69c-4d82-af8d-ef0c351baf6b",
      "created_at": "2018-10-18T20:13:02.558Z",
      "id": 1
    },
    {
      "name": "Project 2",
      "options": {
        "execution_time": true,
        "memory": true,
        "cpu": null
      },
      "link": "https://firebasestorage.googleapis.com/v0/b/artemis-4f4b9.appspot.com/o/1539893594636_07-ngrx-recipes-finished.zip?alt=media&token=69e08a91-e588-41a8-97a4-880c2435e7f0",
      "created_at": "2018-10-18T20:13:17.714Z",
      "id": 2
    },
    {
      "name": "ff",
      "options": {
        "execution_time": true,
        "memory": null,
        "cpu": null
      },
      "link": "fff",
      "created_at": "2018-10-19T14:34:16.832Z",
      "id": 3
    },
    {
      "name": "ff",
      "options": {
        "execution_time": true,
        "memory": null,
        "cpu": null
      },
      "link": "ff",
      "created_at": "2018-10-19T14:38:45.666Z",
      "id": 4
    },
    {
      "name": "fff",
      "options": {
        "execution_time": true,
        "memory": null,
        "cpu": null
      },
      "link": "https://firebasestorage.googleapis.com/v0/b/artemis-4f4b9.appspot.com/o/1539962308685_chromedriver_linux64.zip?alt=media&token=76ec263f-913d-4f13-9477-76e6de4e647e",
      "created_at": "2018-10-19T15:18:32.055Z",
      "id": 5
    },
    {
      "name": "Project 5",
      "options": {
        "execution_time": true,
        "memory": true,
        "cpu": null
      },
      "link": "https://firebasestorage.googleapis.com/v0/b/artemis-4f4b9.appspot.com/o/1539964730795_chromedriver_linux64.zip?alt=media&token=7ab582b8-8de7-4057-8c64-06e14bc5db5c",
      "created_at": "2018-10-19T15:58:54.031Z",
      "id": 6
    },
    {
      "name": "ff",
      "options": {
        "execution_time": true,
        "memory": false,
        "cpu": null
      },
      "link": "https://firebasestorage.googleapis.com/v0/b/artemis-4f4b9.appspot.com/o/1539969940597_07-ngrx-recipes-finished.zip?alt=media&token=ac946248-6cac-4bac-8ba1-2ab72e39089d",
      "created_at": "2018-10-19T17:25:42.241Z",
      "id": 7
    },
    {
      "name": "persona 5",
      "options": {
        "execution_time": true,
        "memory": false,
        "cpu": null
      },
      "link": "https://firebasestorage.googleapis.com/v0/b/artemis-4f4b9.appspot.com/o/1539972159519_chromedriver_linux64.zip?alt=media&token=1c8df6f7-31cf-4f1e-8084-271ce843249c",
      "created_at": "2018-10-19T18:02:42.956Z",
      "id": 8
    }
  ]
}